Badge 3
…
dim(corona_uk)

[1] 3560    6

Using and saving tibbles:

If we want to convert our data frame to a tibble.

Tibbles have nice printing method that show only the first 10 rows and all the columns that fit on the screen. This is useful when you work with large data sets.

Corona_TB <- as_tibble(Corona_DF) #Converting into the tibble dataframe
Corona_TB

# A tibble: 3,798 × 6
      id my_text_data                              name Location Date  Sentiment
   <int> <chr>                                    <int> <chr>    <chr> <chr>    
 1     1 "TRENDING: New Yorkers encounter empty … 44953 UK       02/0… Extremel…
 2     2 "When I couldn't find hand sanitizer at… 44954 UK       02/0… Positive 
 3     3 "Find out how you can protect yourself … 44955 UK       02/0… Extremel…
 4     4 "#Panic buying hits #NewYork City as an… 44956 UK       02/0… Negative 
 5     5 "#toiletpaper #dunnypaper #coronavirus … 44957 UK       03/0… Neutral  
 6     6 "Do you remember the last time you paid… 44958 UK       03/0… Neutral  
 7     7 "Voting in the age of #coronavirus = ha… 44959 UK       03/0… Positive 
 8     8 "@DrTedros \"We can\u0092t stop #COVID1… 44960 UK       03/0… Neutral  
 9     9 "HI TWITTER! I am a pharmacist. I sell … 44961 UK       04/0… Extremel…
10    10 "Anyone been in a supermarket over the … 44962 UK       04/0… Extremel…
# ℹ 3,788 more rows
…
